<?xml version="1.0" encoding="utf-8"?>
<!-- Generator: Adobe Illustrator 16.0.0, SVG Export Plug-In . SVG Version: 6.00 Build 0)  -->
<!DOCTYPE svg PUBLIC "-//W3C//DTD SVG 1.1//EN" "http://www.w3.org/Graphics/SVG/1.1/DTD/svg11.dtd">
<svg version="1.1" id="Layer_1" xmlns="http://www.w3.org/2000/svg" xmlns:xlink="http://www.w3.org/1999/xlink" x="0px" y="0px"
	 width="34px" height="34px" viewBox="0 0 34 34" enable-background="new 0 0 34 34" xml:space="preserve">
<g>
	<g>
		<path fill="#ababab" fill-rule="evenodd" clip-rule="evenodd" d="M15.5,17.5h-4v8h4V17.5z M21.5,13.5h-4v12h4V13.5z M27.5,9.5h-4v16h4V9.5z
			 M9.5,21.5h-4v4h4V21.5z M29.5,5.5h-26c-1.104,0-2,0.896-2,2v20c0,1.104,0.896,2,2,2h26c1.104,0,2-0.896,2-2v-20
			C31.5,6.396,30.604,5.5,29.5,5.5z M29.5,27.5h-26v-20h26V27.5z"/>
	</g>
</g>
</svg>
