<?xml version="1.0" encoding="utf-8"?>
<!-- Generator: Adobe Illustrator 16.0.0, SVG Export Plug-In . SVG Version: 6.00 Build 0)  -->
<!DOCTYPE svg PUBLIC "-//W3C//DTD SVG 1.1//EN" "http://www.w3.org/Graphics/SVG/1.1/DTD/svg11.dtd">
<svg version="1.1" id="Layer_1" xmlns="http://www.w3.org/2000/svg" xmlns:xlink="http://www.w3.org/1999/xlink" x="0px" y="0px"
	 width="34px" height="34px" viewBox="0 0 34 34" enable-background="new 0 0 34 34" xml:space="preserve">
<g>
	<g>
		<path fill="#ababab" fill-rule="evenodd" clip-rule="evenodd" d="M4.875,31h24V3h-24V31z M8.875,7h16v2h-16V7z M8.875,13h16v2h-16V13z M8.875,19
			h16v2h-16V19z M8.875,25h16v2h-16V25z"/>
	</g>
</g>
</svg>
